{
  "Addresses": [
    {
      "id": 1,
      "AddressLine1": "56, avenue de l´Europe",
      "AddressLine2": "",
      "StateProvince": "Essonne",
      "City": "Morangis",
      "PostalCode": "91420",
      "Country": "FR",
      "employeeId": 1
    },
    {
      "id": 2,
      "AddressLine1": "2616, rue de Linois",
      "AddressLine2": "",
      "StateProvince": "Hauts de Seine",
      "City": "Sèvres",
      "PostalCode": "92310",
      "Country": "FR",
      "employeeId": 3
    },
    {
      "id": 3,
      "AddressLine1": "2396 Mink Court",
      "AddressLine2": "",
      "StateProvince": "Oregon",
      "City": "Corvallis",
      "PostalCode": "97330",
      "Country": "US",
      "employeeId": 20
    },
    {
      "id": 4,
      "AddressLine1": "2176 Apollo Way",
      "AddressLine2": "",
      "StateProvince": "Oregon",
      "City": "Beaverton",
      "PostalCode": "97005",
      "Country": "US",
      "employeeId": 19
    },
    {
      "id": 5,
      "AddressLine1": "8422 W. Holly Drive",
      "AddressLine2": "",
      "StateProvince": "Washington",
      "City": "Renton",
      "PostalCode": "98055",
      "Country": "US",
      "employeeId": 4
    },
    {
      "id": 6,
      "AddressLine1": "6, route de Marseille",
      "AddressLine2": "",
      "StateProvince": "Nord",
      "City": "Roncq",
      "PostalCode": "59223",
      "Country": "FR",
      "employeeId": 5
    },
    {
      "id": 7,
      "AddressLine1": "9819 Anchor Court",
      "AddressLine2": "",
      "StateProvince": "California",
      "City": "Beverly Hills",
      "PostalCode": "90210",
      "Country": "US",
      "employeeId": 6
    },
    {
      "id": 8,
      "AddressLine1": "76, avenue de Villiers",
      "AddressLine2": "",
      "StateProvince": "Essonne",
      "City": "Verrieres Le Buisson",
      "PostalCode": "91370",
      "Country": "FR",
      "employeeId": 7
    },
    {
      "id": 9,
      "AddressLine1": "9293 Mt. Washington Way",
      "AddressLine2": "",
      "StateProvince": "Oregon",
      "City": "Portland",
      "PostalCode": "97205",
      "Country": "US",
      "employeeId": 8
    },
    {
      "id": 10,
      "AddressLine1": "277 South Royal Links",
      "AddressLine2": "",
      "StateProvince": "Washington",
      "City": "Tacoma",
      "PostalCode": "98403",
      "Country": "US",
      "employeeId": 9
    },
    {
      "id": 11,
      "AddressLine1": "9204 Birch Bark Dr.",
      "AddressLine2": "",
      "StateProvince": "California",
      "City": "La Jolla",
      "PostalCode": "92806",
      "Country": "US",
      "employeeId": 10
    },
    {
      "id": 12,
      "AddressLine1": "2028 Mendocino Drive",
      "AddressLine2": "",
      "StateProvince": "Oregon",
      "City": "Corvallis",
      "PostalCode": "97330",
      "Country": "US",
      "employeeId": 11
    },
    {
      "id": 13,
      "AddressLine1": "5606 Bay View Drive",
      "AddressLine2": "",
      "StateProvince": "Washington",
      "City": "Sedro Woolley",
      "PostalCode": "98284",
      "Country": "US",
      "employeeId": 12
    },
    {
      "id": 14,
      "AddressLine1": "Lincoln Square",
      "AddressLine2": "",
      "StateProvince": "Texas",
      "City": "Arlington",
      "PostalCode": "76010",
      "Country": "US",
      "employeeId": 13
    },
    {
      "id": 15,
      "AddressLine1": "1048 Las Quebradas Lane",
      "AddressLine2": "",
      "StateProvince": "New South Wales",
      "City": "Wollongong",
      "PostalCode": "2500",
      "Country": "AU",
      "employeeId": 14
    },
    {
      "id": 16,
      "AddressLine1": "9452 Mariposa Ct.",
      "AddressLine2": "",
      "StateProvince": "New South Wales",
      "City": "Lavender Bay",
      "PostalCode": "2060",
      "Country": "AU",
      "employeeId": 15
    },
    {
      "id": 17,
      "AddressLine1": "5911, rue des Ecoles",
      "AddressLine2": "",
      "StateProvince": "Seine (Paris)",
      "City": "Paris",
      "PostalCode": "75016",
      "Country": "FR",
      "employeeId": 16
    },
    {
      "id": 18,
      "AddressLine1": "Knaackstr 756",
      "AddressLine2": "",
      "StateProvince": "Hamburg",
      "City": "München",
      "PostalCode": "80074",
      "Country": "DE",
      "employeeId": 17
    },
    {
      "id": 19,
      "AddressLine1": "Corp Ofc Accts Payable",
      "AddressLine2": "",
      "StateProvince": "California",
      "City": "El Segundo",
      "PostalCode": "90245",
      "Country": "US",
      "employeeId": 18
    }
  ],
  "employees": [
    {
      "id": 1,
      "FirstName": "Ken",
      "LastName": "Sanch",
      "Gender": "M",
      "EmailAddress": "ken0@adventure-works.com",
      "PhoneNumber": "697-555-0142"
    },
    {
      "id": 2,
      "FirstName": "Terri",
      "LastName": "Duffy",
      "Gender": "F",
      "EmailAddress": "terri0@adventure-works.com",
      "PhoneNumber": "819-555-0175"
    },
    {
      "id": 3,
      "FirstName": "Roberto",
      "LastName": "Tamburell",
      "Gender": "M",
      "EmailAddress": "roberto0@adventure-works.com",
      "PhoneNumber": "212-555-0187"
    },
    {
      "id": 4,
      "FirstName": "Rob",
      "LastName": "Walters",
      "Gender": "M",
      "EmailAddress": "rob0@adventure-works.com",
      "PhoneNumber": "612-555-0100"
    },
    {
      "id": 5,
      "FirstName": "Gail",
      "LastName": "Erickson",
      "Gender": "F",
      "EmailAddress": "gail0@adventure-works.com",
      "PhoneNumber": "849-555-0139"
    },
    {
      "id": 6,
      "FirstName": "Jossef",
      "LastName": "Goldberg",
      "Gender": "M",
      "EmailAddress": "jossef0@adventure-works.com",
      "PhoneNumber": "122-555-0189"
    },
    {
      "id": 7,
      "FirstName": "Dylan",
      "LastName": "Miller",
      "Gender": "M",
      "EmailAddress": "dylan0@adventure-works.com",
      "PhoneNumber": "181-555-0156"
    },
    {
      "id": 8,
      "FirstName": "Diane",
      "LastName": "Margheim",
      "Gender": "F",
      "EmailAddress": "diane1@adventure-works.com",
      "PhoneNumber": "815-555-0138"
    },
    {
      "id": 9,
      "FirstName": "Gigi",
      "LastName": "Matthew",
      "Gender": "F",
      "EmailAddress": "gigi0@adventure-works.com",
      "PhoneNumber": "185-555-0186"
    },
    {
      "id": 10,
      "FirstName": "Michael",
      "LastName": "Raheem",
      "Gender": "M",
      "EmailAddress": "michael6@adventure-works.com",
      "PhoneNumber": "330-555-2568"
    },
    {
      "id": 11,
      "FirstName": "OvIdiu",
      "LastName": "Cracium",
      "Gender": "M",
      "EmailAddress": "ovIdiu0@adventure-works.com",
      "PhoneNumber": "719-555-0181"
    },
    {
      "id": 12,
      "FirstName": "Thierry",
      "LastName": "D'Hers",
      "Gender": "M",
      "EmailAddress": "thierry0@adventure-works.com",
      "PhoneNumber": "168-555-0183"
    },
    {
      "id": 13,
      "FirstName": "Janice",
      "LastName": "Galvin",
      "Gender": "F",
      "EmailAddress": "janice0@adventure-works.com",
      "PhoneNumber": "473-555-0117"
    },
    {
      "id": 14,
      "FirstName": "Michael",
      "LastName": "Sullivan",
      "Gender": "M",
      "EmailAddress": "michael8@adventure-works.com",
      "PhoneNumber": "465-555-0156"
    },
    {
      "id": 15,
      "FirstName": "Sharon",
      "LastName": "Salavaria",
      "Gender": "F",
      "EmailAddress": "sharon0@adventure-works.com",
      "PhoneNumber": "970-555-0138"
    },
    {
      "id": 16,
      "FirstName": "David",
      "LastName": "Bradley",
      "Gender": "M",
      "EmailAddress": "david0@adventure-works.com",
      "PhoneNumber": "913-555-0172"
    },
    {
      "id": 17,
      "FirstName": "Kevin",
      "LastName": "Brown",
      "Gender": "M",
      "EmailAddress": "kevin0@adventure-works.com",
      "PhoneNumber": "150-555-0189"
    },
    {
      "id": 18,
      "FirstName": "John",
      "LastName": "Wood",
      "Gender": "M",
      "EmailAddress": "john5@adventure-works.com",
      "PhoneNumber": "486-555-0150"
    },
    {
      "id": 19,
      "FirstName": "Mary",
      "LastName": "Dempsey",
      "Gender": "F",
      "EmailAddress": "mary2@adventure-works.com",
      "PhoneNumber": "124-555-0114"
    },
    {
      "id": 20,
      "FirstName": "WanIda",
      "LastName": "Benshoof",
      "Gender": "F",
      "EmailAddress": "wanIda0@adventure-works.com",
      "PhoneNumber": "708-555-0141"
    }
  ]
}
